…
Remove all tweets that are re-tweets (`is_retweet`) and identify which topics the senators tweet about. Rather than a full text analysis, just use the variable `hashtags` and identify the most common hashtags over time. Provide a visual summary.

```r
senator_tweets <- readRDS("senator_tweets.RDS")

# How limiting is the API limit?
senator_tweets %>% 
  group_by(screen_name) %>% 
  summarize(n_tweet = n(),
            oldest_tweet = min(created_at)) %>%
  arrange(desc(oldest_tweet))
```

```
## # A tibble: 100 x 3
##    screen_name    n_tweet oldest_tweet       
##    <chr>            <int> <dttm>             
##  1 SenDougJones       178 2018-01-05 18:18:46
##  2 SenTinaSmith       814 2018-01-03 16:21:07
##  3 JohnCornyn        3193 2017-05-31 02:56:50
##  4 SenWhitehouse     3206 2017-05-08 18:44:06
##  5 senorrinhatch     3212 2017-05-01 14:36:04
##  6 brianschatz       3211 2017-04-23 21:15:28
##  7 senrobportman     3237 2017-04-19 15:39:38
##  8 SenMarkey         3241 2017-03-21 18:44:15
##  9 CoryBooker        3206 2017-03-09 21:57:18
## 10 SenJeffMerkley    3248 2017-03-07 01:40:21
## # ... with 90 more rows
```
…
